#############################
#            N_1	        #
#############################
# N_1 is the observed abundance of MSW adult returns 
# It is a dataframe with 18 rows and 31columns
# Each column represents one year from 1=1987 to 31=2017
# Each row represents one river :
# 1: Couesnon; 2: Leff; 3: Trieux; 4: Jaudy; 5: Leguer; 6: Yar; 7: Douron; 8: Queffleuth; 9: Penze; 10: Elorn; 11: Mignonne; 12: Aulne; 13: Goyen; 14: Odet; 15: Aven; 16: Elle; 17: Scorff; 18: Blavet;  
      N_1[,1] N_1[,2] N_1[,3] N_1[,4] N_1[,5] N_1[,6] N_1[,7] N_1[,8] N_1[,9] N_1[,10] N_1[,11] N_1[,12] N_1[,13] N_1[,14] N_1[,15] N_1[,16] N_1[,17] N_1[,18] N_1[,19] N_1[,20] N_1[,21] N_1[,22] N_1[,23] N_1[,24] N_1[,25] N_1[,26] N_1[,27] N_1[,28] N_1[,29] N_1[,30] N_1[,31]
 [1,]        NA        NA        NA        NA        NA        NA        NA        NA        NA         NA         NA         NA         NA         NA         NA         NA         NA         NA         NA         NA         NA         NA         NA         NA         NA         NA         NA         NA         NA         NA         NA
 [2,]        NA        NA        NA        NA        NA        NA        NA        NA        NA         NA         NA         NA         NA         NA         NA         NA         NA         NA         NA         NA         NA         NA         NA         NA         NA         NA         NA         NA         NA         NA         NA
 [3,]        NA        NA        NA        NA        NA        NA        NA        NA        NA         NA         NA         NA         NA         NA         NA         NA         NA         NA         NA         NA         NA         NA         NA         NA         NA         NA         NA         NA         NA         NA         NA
 [4,]        NA        NA        NA        NA        NA        NA        NA        NA        NA         NA         NA         NA         NA         NA         NA         NA         NA         NA         NA         NA         NA         NA         NA         NA         NA         NA         NA         NA         NA         NA         NA
 [5,]        NA        NA        NA        NA        NA        NA        NA        NA        NA         NA         NA         NA         NA         NA         NA         NA         NA         NA         NA         NA         NA         NA         NA         NA         NA         NA         NA         NA         NA         NA         NA
 [6,]        NA        NA        NA        NA        NA        NA        NA        NA        NA         NA         NA         NA         NA         NA         NA         NA         NA         NA         NA         NA         NA         NA         NA         NA         NA         NA         NA         NA         NA         NA         NA
 [7,]        NA        NA        NA        NA        NA        NA        NA        NA        NA         NA         NA         NA         NA         NA         NA         NA         NA         NA         NA         NA         NA         NA         NA         NA         NA         NA         NA         NA         NA         NA         NA
 [8,]        NA        NA        NA        NA        NA        NA        NA        NA        NA         NA         NA         NA         NA         NA         NA         NA         NA         NA         NA         NA         NA         NA         NA         NA         NA         NA         NA         NA         NA         NA         NA
 [9,]        NA        NA        NA        NA        NA        NA        NA        NA        NA         NA         NA         NA         NA         NA         NA         NA         NA         NA         NA         NA         NA         NA         NA         NA         NA         NA         NA         NA         NA         NA         NA
[10,]        NA        NA        NA        NA        NA        NA        NA        NA        NA         NA         NA         NA         NA         NA         NA         NA         NA         NA         NA         NA         NA        126        176        218        346        124        217        281        164        134        137
[11,]        NA        NA        NA        NA        NA        NA        NA        NA        NA         NA         NA         NA         NA         NA         NA         NA         NA         NA         NA         NA         NA         NA         NA         NA         NA         NA         NA         NA         NA         NA         NA
[12,]        NA        NA        NA        NA        NA        NA        NA        NA        NA         NA         NA         NA         NA         NA         NA         NA         NA         NA         NA         NA         NA         NA         NA         NA         NA         NA         NA         NA         NA         NA         NA
[13,]        NA        NA        NA        NA        NA        NA        NA        NA        NA         NA         NA         NA         NA         NA         NA         NA         NA         NA         NA         NA         NA         NA         NA         NA         NA         NA         NA         NA         NA         NA         NA
[14,]        NA        NA        NA        NA        NA        NA        NA        NA        NA         NA         NA         NA         NA         NA         NA         NA         NA         NA         NA         NA         NA         NA         NA         NA         NA         NA         NA         NA         NA         NA         NA
[15,]        NA        NA        NA        NA        NA        NA        NA        NA        NA         NA         NA         NA         NA         NA         NA         NA         NA         NA         NA         NA         NA         NA         NA         NA         NA         NA         NA         NA         NA         NA         NA
[16,]        NA        NA        NA        NA        NA        NA        NA        NA        NA         NA         NA         NA         NA         NA         NA         NA         NA         NA         NA         NA         NA         NA         NA         NA         NA         NA         NA         NA         NA         NA         NA
[17,]        NA        NA        NA        NA        NA        NA        NA        78        90         87         69         27         93         41         38         22         58         64        130        104         93         87        117         65        215        145        103        135        175         87        143
[18,]        NA        NA        NA        NA        NA        NA        NA        NA        NA         NA         NA         NA         NA         NA         NA         NA         NA         NA         NA         NA         NA         NA         NA         NA         NA         NA         NA         NA         NA         NA         NA
#END