#############################
#          Y_MSW           #
#############################
# Dataframe with 18 rows and 31columns
# Each column represents one year from 1=1992 to 24=2015
# Each row represents one river :
#1: COUESNON; 2: LEFF; 3: TRIEUX; 4: JAUDY; 5: LEGUER; 6: YAR; 7: DOURON; 8: QUEFFLEUTH; 9: PENZE; 10: ELORN; 11: MIGNONNE; 12: AULNE; 13: GOYEN; 14: ODET; 15: AVEN; 16: ELLE; 17: SCORFF; 18: BLAVET; 
# Y_MSW is the number of multiple sea winter A. salmon yield in each river X year
      Y_MSW[,1] Y_MSW[,2] Y_MSW[,3] Y_MSW[,4] Y_MSW[,5] Y_MSW[,6] Y_MSW[,7] Y_MSW[,8] Y_MSW[,9] Y_MSW[,10] Y_MSW[,11] Y_MSW[,12] Y_MSW[,13] Y_MSW[,14] Y_MSW[,15] Y_MSW[,16] Y_MSW[,17] Y_MSW[,18] Y_MSW[,19] Y_MSW[,20] Y_MSW[,21] Y_MSW[,22] Y_MSW[,23] Y_MSW[,24] Y_MSW[,25] Y_MSW[,26] Y_MSW[,27] Y_MSW[,28] Y_MSW[,29] Y_MSW[,30] Y_MSW[,31]
 [1,]         1         3         1         0         0         0         0         2         3          2          1          1         10          4          8          6          9         21          9         16          6         17         11         10         12         22         15         18         21         16          8
 [2,]         5         8         7         3         3         1         4         3         0          5          1          0          0          0          2          1          2          2          0          5          2          4          1          2          6          7          4          3          3          4          0
 [3,]         5        13         6        10        18         9        10        33        27         40          8          8         39         27         38          4         18         26         29         12         36         20         29          8         15         34         19         19         22         28         25
 [4,]         0         0         1         0         0         2         0         0         0          1          0          0          0          1          1          0          2          1          2          0          3          1          1          1          4          9          4          1          2          3          0
 [5,]        65        68        55        59        22        25        11        43        29         45         17         12          9         35         36         20         24         44         45         67         34         58         36         14         64         52         58         53         29         50         50
 [6,]         1         2         0         4         1         0         4         5         0          0          0          0          0          1          2          1          1          1          2          4          4          0          0          0          1          0          0          0          0          0          0
 [7,]        11        19        27         9        23        10        20        21        31         38         16         16          9         16         12         11         15         11         12         21         19          5          5          4          4          3          8          6         10          8          3
 [8,]         0         0         0         0         0         0         1         0         0          0          0          0          0          0          0          0          0          0          0          1          1          2          4          3          0          4          3          0          2          0          0
 [9,]         9        11        24        27        17        45        18        16        11         19          8          5          4          7          4          3         13          9         10         16         14         16         18          6         23         16         14         15         23         14         17
[10,]        65       127        68        80        57        53        32        92        43         98         41         30         36         20         19         10         42         41         42         29         44         20         28         24         31         22         31         35         39         31         32
[11,]         3         7        22        11        20         5         4        19        10         18          4          2          3          8          4          3          3         22         20         12         14         17          0          5          2          8          6          4          2          2          1
[12,]        18        30        29        34        44        78        74        90       122        166         64         40         36         36         39         19         38         72         34         50         45         41         42         14         43         35         40         27         33         15         11
[13,]        16        15         7        10        12         4         2         2        15         22          9          4          2          6          8          4         13          7          2         18         12          1          5          2         14         17          6          8         12         12          6
[14,]        81       111        70       104        58        50        60       130        45         85         10         10         10         19         15         14         20         33         31         62         27         31         15          5         31         53         21         27         57         23         21
[15,]        24        35        61        39        33        18        16        76        34         17          4          8          8         15         10          4         19         22          9         21         24         23         11         10         38         25         18         21         24         18         16
[16,]        74       112        78        63        83        33        44        98        65         95         14         27         35         33         38         21         32         77        104        115        104         96         54         19         74        147         64         68         93         81         62
[17,]        24        31        14        18        21        13        13        17         6          8          7          5          3          6          4          1          7         13         23         26         11         12         12          3         10         29          9         13         30         10         13
[18,]        44        43        60        36        26        24        11        28        23         55         15          6          7         21         12         13         26         29         46         37         37         39         19         12         40         31         28         27         41         31         21
#END